Day 5 Homework
…
summarize(group_by(MortalitySample, Country, Sex, Cause), mean = mean(Deaths1))

## Source: local data frame [4,778 x 4]
## Groups: Country, Sex [?]
## 
##    Country    Sex Cause  mean
##      <int> <fctr> <chr> <dbl>
## 1     1125   Male  A007    70
## 2     1125   Male  A042     0
## 3     1125   Male  A054    23
## 4     1125   Male  A068     6
## 5     1125   Male   A30     1
## 6     1125   Male   A48    24
## 7     1125   Male   B19   364
## 8     1125   Male  B451     5
## 9     1125   Male   B47  2820
## 10    1125   Male  B471  2575
## # ... with 4,768 more rows
…
